Classification of IUCN Red List Species
…
species_list_fb <- fishbase_taxa %>% pull(Species)
fb_data <- species(species_list = species_list_fb, fields=c("Species", "Length", "Vulnerability", "CommonLength", "PriceCateg", "Importance", "LongevityWild", "BodyShapeI", "DepthRangeDeep", "DepthRangeComDeep"))
# popgrowth("Oreochromis niloticus")
# distribution("Oreochromis niloticus")

fb_data %>% filter(is.na(DepthRangeDeep))

## # A tibble: 19,872 x 10
##    Species Length Vulnerability CommonLength PriceCateg Importance
##    <chr>    <dbl>         <dbl>        <dbl> <chr>      <chr>     
##  1 Orthop    46           50.7           30 low        minor com
##  2 Epinep    76           61.2           40 high       highly co
##  3 Atheri    20           20.7           NA medium     subsisten
##  4 Belone   104.          48.8           45 high       commercial
##  5 Centro    18           20             12 <NA>       of no int
##  6 Sympho    28           34.0           20 very high  subsisten
##  7 Diplec     6           35.3           NA unknown    of no int
##  8 Gobius     6           14.4           NA <NA>       of no int
##  9 Gymnam    30           41.0           15 unknown    commercial
## 10 Labeo    200           49.2           NA unknown    highly co
## #  with 19,862 more rows, and 4 more variables: LongevityWild <dbl>,
## #   BodyShapeI <chr>, DepthRangeDeep <dbl>, DepthRangeComDeep <dbl>

fb_data %>% filter(is.na(DepthRangeComDeep) & is.na(DepthRangeDeep))

## # A tibble: 19,734 x 10
##    Species Length Vulnerability CommonLength PriceCateg Importance
##    <chr>    <dbl>         <dbl>        <dbl> <chr>      <chr>     
##  1 Orthop    46           50.7           30 low        minor com
##  2 Epinep    76           61.2           40 high       highly co
##  3 Atheri    20           20.7           NA medium     subsisten
##  4 Belone   104.          48.8           45 high       commercial
##  5 Centro    18           20             12 <NA>       of no int
##  6 Diplec     6           35.3           NA unknown    of no int
##  7 Gobius     6           14.4           NA <NA>       of no int
##  8 Gymnam    30           41.0           15 unknown    commercial
##  9 Labeo    200           49.2           NA unknown    highly co
## 10 Auxis     50           26.7           NA very high  highly co
## #  with 19,724 more rows, and 4 more variables: LongevityWild <dbl>,
## #   BodyShapeI <chr>, DepthRangeDeep <dbl>, DepthRangeComDeep <dbl>

fb_data %>% group_by(DepthRangeDeep) %>% 
  summarize(n=n())

## # A tibble: 1,468 x 2
##    DepthRangeDeep     n
##             <dbl> <int>
##  1              0     8
##  2              1   155
##  3              2   170
##  4              3   132
##  5              4    69
##  6              5   215
##  7              6   107
##  8              7    47
##  9              8   122
## 10              9    57
## #  with 1,458 more rows
…
